…
    ## Joining, by = "Sample"

``` r
ase.long
```

    ## # A tibble: 430,980 × 10
    ##    gene   Cross Tissue Rep   Rat   Cross_group Cross_direction Maternal Paternal
    ##    <chr>  <chr> <chr>  <chr> <chr> <chr>       <chr>              <dbl>    <dbl>
    ##  1 XM_00… BW    EB     rep1  rep1… BW/WB       Forward            102.     116. 
    ##  2 XM_00… BW    EB     rep2  rep2… BW/WB       Forward             81.9    185. 
    ##  3 XM_00… BW    EB     rep3  rep3… BW/WB       Forward             75.8    197. 
    ##  4 XM_00… WB    EB     rep1  rep1… BW/WB       Reverse             92.1    121. 
    ##  5 XM_00… WB    EB     rep2  rep2… BW/WB       Reverse             76.6     37.4
    ##  6 XM_00… WB    EB     rep3  rep3… BW/WB       Reverse            131.      74.6
    ##  7 XM_00… BF    EB     rep1  rep1… BF/FB       Forward             78.4     56.0
    ##  8 XM_00… BF    EB     rep2  rep2… BF/FB       Forward             44.1     97.9
    ##  9 XM_00… FB    EB     rep1  rep1… BF/FB       Reverse             59.0     60.8
    ## 10 XM_00… FB    EB     rep2  rep2… BF/FB       Reverse             75.0     96.1
    ## # … with 430,970 more rows, and 1 more variable: prop <dbl>
…
